<svg width="33" height="33" viewBox="0 0 33 33" fill="none" xmlns="http://www.w3.org/2000/svg">
<path d="M14.1571 33C12.0506 33 10.3368 31.2863 10.3368 29.1797C10.3368 28.9289 10.1329 28.725 9.882 28.725H5.92651V26.4513H9.882C11.3865 26.4513 12.6105 27.6753 12.6105 29.1798C12.6105 30.0326 13.3043 30.7263 14.157 30.7263C15.0098 30.7263 15.7037 30.0326 15.7037 29.1798V25.0726H17.9774V29.1798C17.9774 31.2863 16.2636 33 14.1571 33Z" fill="black"/>
<path d="M26.8607 6.11971C27.192 5.17831 27.1352 4.16072 26.7007 3.25451C26.2663 2.34817 25.5086 1.66671 24.5674 1.33548C24.4641 1.2992 24.3572 1.26716 24.2403 1.23764L24.24 1.23758L15.1934 26.9446C15.3036 26.9951 15.4071 27.0373 15.5096 27.0732C15.9116 27.2146 16.3291 27.2864 16.7505 27.2864C18.3423 27.2864 19.7664 26.279 20.2939 24.7797L26.8607 6.11971Z" fill="#6C0014"/>
<path d="M17.668 19.776L16.8405 19.542V0.0163066C16.7197 0.00528516 16.6081 0 16.4995 0C14.4309 0 12.7478 1.683 12.7478 3.75169V23.5333C12.7478 24.2177 12.9361 24.8888 13.2926 25.4741C13.9921 26.6403 15.2631 27.3607 16.6132 27.3607C18.7446 27.3607 20.4786 25.6267 20.4786 23.4954C20.4786 21.7735 19.3229 20.2441 17.668 19.776Z" fill="#A2001D"/>
<path d="M16.6127 24.6322C17.2406 24.6322 17.7496 24.1232 17.7496 23.4953C17.7496 22.8675 17.2406 22.3585 16.6127 22.3585C15.9848 22.3585 15.4758 22.8675 15.4758 23.4953C15.4758 24.1232 15.9848 24.6322 16.6127 24.6322Z" fill="black"/>
</svg>
